// Jest Snapshot v1, https://goo.gl/fbAQLP

exports[`<Tag /> should match snapshot 1`] = `
.c0 {
  font-size: 12px;
  font-weight: 500;
  line-height: 14px;
  padding: 5px 10px;
  background-color: rgba(18,184,255,0.15);
  color: rgba(18,184,255,1);
  border-radius: 4px;
  white-space: nowrap;
}

<div
  class="c0"
>
  Name
</div>
`;
