{
    "products": [
        {
            "id": 1,
            "name": "Foxit software PhantomPDF Standard",
            "category": "Daily Business",
            "manufacturer_url": "https://www.foxitsoftware.com/de/pdf-editor",
            "description": "PhantomPDF provides powerful PDF Editor capabilities to allow authors to update their documents themselves. Standard -Simple interface and limited functionality",
            "tags": [
                "PDF",
                "Change",
                "Create",
                "Maintenance",
                "Business",
                "FoxIT"
            ],
            "options": [
                "1 Year Maintenance",
                "Without Maintenance"
            ]
        },
        {
            "id": 2,
            "name": "Foxit Software PhantomPDF Business",
            "category": "Daily Business",
            "manufacturer_url": "https://www.foxitsoftware.com/de/pdf-editor",
            "description": "PhantomPDF provides powerful PDF Editor capabilities to allow authors to update their documents themselves. Business - Advances capabilities, complete lifecycle solution",
            "tags": [],
            "options": [
                "1 Year Maintenance",
                "Without Maintenance"
            ]
        },
        {
            "id": 3,
            "name": "Autodesk AutoCAD 2020.x",
            "category": "Graphic Editors",
            "manufacturer_url": "https://www.autodesk.com",
            "description": "AutoCAD® is computer-aided design (CAD) software that architects, engineers, and construction professionals rely on to create precise 2D and 3D drawings. Draft, annotate, and design 2D geometry and 3D models with solids, surfaces, and mesh objects. Automate tasks such as comparing drawings, adding blocks, creating schedules, and more. Customize with add-on apps and APIs.",
            "tags": [
                "Autodesk",
                "3D Modeling",
                "Visualization",
                "Solid",
                "Surface",
                "Mesh Modeling",
                "Photorealistic Rendering",
                "Section Planes",
                "Visual Styles",
                "3D Navigation",
                "3D Scanning",
                "Base",
                "Projected",
                "Section Views"
            ],
            "options": [
                "With Maintenance",
                "Without Maintenance"
            ]
        },
        {
            "id": 4,
            "name": "TechSmith Snagit",
            "category": "Daily Business",
            "manufacturer_url": "https://www.techsmith.com/screen-capture.html",
            "description": "Capture any process on your computer screen and quickly create visual instructions. Show customers and coworkers how to do something with screenshots and screen recordings. Mark up your screenshots, or talk through a process and answer questions with a quick video. Create custom how-to guides, tutorials, and quick videos right within Snagit",
            "tags": [
                "Screen capture",
                "Snipping tool",
                "Snagit",
                "TechSmith"
            ],
            "options": [
                "With Maintenance",
                "Without Maintenance"
            ]
        },
        {
            "id": 5,
            "name": "TechSmith Camtasia",
            "category": "Daily Business",
            "manufacturer_url": "https://www.techsmith.com/video-editor.html",
            "description": "Camtasia lets you record a video of what’s on your computer screen. Use it to make lessons, tutorials, or product demos. Turn your screen recordings into compelling videos with Camtasia’s video editing tools, animations, and effects.",
            "tags": [
                "TechSmith",
                "Camtasia",
                "Video Editor",
                "Screen recorder"
            ],
            "options": []
        },
        {
            "id": 6,
            "name": "ZeroTurnaround JRebel",
            "category": "Software Development",
            "manufacturer_url": "https://www.jrebel.com/products/jrebel",
            "description": "JRebel is a productivity tool that allows developers to reload code changes instantly. It skips the rebuild, restart and redeploy cycle common in Java development. JRebel enables developers to get more done in the same amount of time and to stay in the flow while coding.",
            "tags": [
                "Java",
                "Deployment",
                "Zeroturnaround",
                "Xrebel"
            ],
            "options": [
                "New user",
                "Renewal for existing user"
            ]
        },
        {
            "id": 7,
            "name": "JetBrains PhpStorm 2020",
            "category": "Software Development",
            "manufacturer_url": "https://www.jetbrains.com/phpstorm",
            "description": "The editor actually 'gets' your code and deeply understands its structure, supporting all the PHP language features for modern and legacy projects. It provides the best code completion, refactoring, on-the-fly error prevention, and more.",
            "tags": [
                "JetBrains",
                "PhpStorm",
                "Code",
                "Database",
                "Coding",
                "Renewal"
            ],
            "options": []
        },
        {
            "id": 8,
            "name": "JetBrain ReSharper Ultimate 2020.x",
            "category": "Software Development",
            "manufacturer_url": "https://www.jetbrains.com/resharper",
            "description": "The Visual Studio Extension for .NET Developers. Not only does ReSharper warn you when there's a problem in your code but it provides hundreds of quick-fixes to solve problems automatically.",
            "tags": [
                "JetBrains",
                "ReSharper",
                ".NET",
                "VisiualStudio",
                "Extension",
                "Code",
                "Coding"
            ],
            "options": []
        },
        {
            "id": 9,
            "name": "JetBrains PhpStorm 2020",
            "category": "Software Development",
            "manufacturer_url": "https://www.tableau.com/products/desktop",
            "description": "Tableau is a powerful and fastest growing data visualization tool used in the Business Intelligence Industry. It helps in simplifying raw data into the very easily understandable format. Data analysis is very fast with Tableau and the visualizations created are in the form of dashboards and worksheets.",
            "tags": [
                "Tableau",
                "Desktop Professional",
                "Desktop Prof.",
                "Perpetual",
                "Maintenance",
                "Data visualization",
                "Business Intelligence",
                "Analytics"
            ],
            "options": [
                "Perpetual",
                "Subscription"
            ]
        },
        {
            "id": 10,
            "name": "Zoom Meetingroom",
            "category": "Daily Business",
            "manufacturer_url": "https://zoom.us/zoomrooms",
            "description": "Zoom Rooms tackles the three biggest pain points of the conference room: Starting a meeting, booking a meeting, and sharing content.",
            "tags": [
                "Zoom",
                "Meetingrooms",
                "Zoomrooms",
                "Sharing content"
            ],
            "options": []
        }
    ]
}