// Jest Snapshot v1, https://goo.gl/fbAQLP

exports[`<Logo /> should match snapshot 1`] = `
.c0 {
  font-size: 18px;
  font-weight: 400;
  line-height: 21px;
  margin-bottom: 6px;
}

<div
  class="c0"
>
  Create Demand
</div>
`;
